<?xml version="1.0" encoding="UTF-8" standalone="no"?>
<!-- Created with Inkscape (http://www.inkscape.org/) -->

<svg
   xmlns:dc="http://purl.org/dc/elements/1.1/"
   xmlns:cc="http://creativecommons.org/ns#"
   xmlns:rdf="http://www.w3.org/1999/02/22-rdf-syntax-ns#"
   xmlns:svg="http://www.w3.org/2000/svg"
   xmlns="http://www.w3.org/2000/svg"
   xmlns:xlink="http://www.w3.org/1999/xlink"
   xmlns:sodipodi="http://sodipodi.sourceforge.net/DTD/sodipodi-0.dtd"
   xmlns:inkscape="http://www.inkscape.org/namespaces/inkscape"
   width="1417.3228"
   height="1417.3228"
   id="svg2"
   version="1.1"
   inkscape:version="0.48.4 r9939"
   sodipodi:docname="dogbrett-linked-smaller-paths.svg">
  <defs
     id="defs4">
    <filter
       id="filter3282">
      <feGaussianBlur
         stdDeviation="1.5314286"
         id="feGaussianBlur3284" />
    </filter>
    <filter
       x="-0.1536"
       width="1.3072"
       y="-0.1536"
       height="1.3072"
       id="filter3288">
      <feGaussianBlur
         stdDeviation="3.0628572"
         id="feGaussianBlur3290" />
    </filter>
    <filter
       x="-0.2304"
       width="1.4608"
       y="-0.2304"
       height="1.4608"
       id="filter3294">
      <feGaussianBlur
         stdDeviation="4.5942858"
         id="feGaussianBlur3296" />
    </filter>
    <filter
       x="-0.3072"
       width="1.6144"
       y="-0.3072"
       height="1.6144"
       id="filter3300">
      <feGaussianBlur
         stdDeviation="6.1257143"
         id="feGaussianBlur3302" />
    </filter>
    <filter
       x="-0.384"
       width="1.768"
       y="-0.384"
       height="1.768"
       id="filter3306">
      <feGaussianBlur
         stdDeviation="7.6571429"
         id="feGaussianBlur3308" />
    </filter>
    <filter
       id="filter3314">
      <feGaussianBlur
         stdDeviation="1.5314286"
         id="feGaussianBlur3316" />
    </filter>
    <filter
       id="filter3322">
      <feGaussianBlur
         stdDeviation="1.5314286"
         id="feGaussianBlur3324" />
    </filter>
    <filter
       id="filter3330">
      <feGaussianBlur
         stdDeviation="1.5314286"
         id="feGaussianBlur3332" />
    </filter>
    <filter
       id="filter3338">
      <feGaussianBlur
         stdDeviation="1.5314286"
         id="feGaussianBlur3340" />
    </filter>
    <filter
       x="-0.1536"
       width="1.3072"
       y="-0.1536"
       height="1.3072"
       id="filter3344">
      <feGaussianBlur
         stdDeviation="3.0628572"
         id="feGaussianBlur3346" />
    </filter>
    <filter
       x="-0.2304"
       width="1.4608"
       y="-0.2304"
       height="1.4608"
       id="filter3350">
      <feGaussianBlur
         stdDeviation="4.5942858"
         id="feGaussianBlur3352" />
    </filter>
    <filter
       x="-0.3072"
       width="1.6144"
       y="-0.3072"
       height="1.6144"
       id="filter3356">
      <feGaussianBlur
         stdDeviation="6.1257143"
         id="feGaussianBlur3358" />
    </filter>
    <filter
       x="-0.384"
       width="1.768"
       y="-0.384"
       height="1.768"
       id="filter3362">
      <feGaussianBlur
         stdDeviation="7.6571429"
         id="feGaussianBlur3364" />
    </filter>
  </defs>
  <sodipodi:namedview
     id="base"
     pagecolor="#ffffff"
     bordercolor="#666666"
     borderopacity="1.0"
     inkscape:pageopacity="0.0"
     inkscape:pageshadow="2"
     inkscape:zoom="0.35"
     inkscape:cx="211.32251"
     inkscape:cy="458.54858"
     inkscape:document-units="cm"
     inkscape:current-layer="g3537"
     showgrid="true"
     units="cm"
     showguides="true"
     inkscape:guide-bbox="true"
     inkscape:window-width="1916"
     inkscape:window-height="1041"
     inkscape:window-x="2048"
     inkscape:window-y="18"
     inkscape:window-maximized="0"
     inkscape:snap-center="false" />
  <metadata
     id="metadata7">
    <rdf:RDF>
      <cc:Work
         rdf:about="">
        <dc:format>image/svg+xml</dc:format>
        <dc:type
           rdf:resource="http://purl.org/dc/dcmitype/StillImage" />
        <dc:title />
      </cc:Work>
    </rdf:RDF>
  </metadata>
  <g
     inkscape:label="Layer 1"
     inkscape:groupmode="layer"
     id="layer1"
     transform="translate(0,364.96193)">
    <g
       id="g3537"
       transform="matrix(1.6079735,0,0,1.6373717,-408.84781,-198.93989)">
      <g
         transform="translate(-638.50488,1047.927)"
         inkscape:tile-y0="-477.72342"
         inkscape:tile-x0="347.49249"
         inkscape:tile-h="82.832512"
         inkscape:tile-w="274.75129"
         inkscape:tile-cy="-436.30716"
         inkscape:tile-cx="484.86813"
         id="g3496">
        <g
           id="g4355"
           transform="translate(14.92562,-2.4429398)">
          <path
             sodipodi:type="arc"
             style="fill:none;stroke:#252525;stroke-width:1.49232662;stroke-miterlimit:4;stroke-opacity:1;stroke-dasharray:none"
             id="path3078"
             sodipodi:cx="384.86813"
             sodipodi:cy="-436.30716"
             sodipodi:rx="37.375645"
             sodipodi:ry="41.416256"
             d="m 422.24378,-436.30716 c 0,22.87357 -16.73365,41.41626 -37.37565,41.41626 -20.642,0 -37.37564,-18.54269 -37.37564,-41.41626 0,-22.87357 16.73364,-41.41626 37.37564,-41.41626 20.642,0 37.37565,18.54269 37.37565,41.41626 z"
             transform="matrix(0.37664302,-0.22086332,0.20295971,0.33379466,344.61401,-606.20232)" />
          <path
             transform="matrix(0.37664302,-0.22086332,0.20295971,0.33379466,381.92807,-606.20232)"
             d="m 422.24378,-436.30716 c 0,22.87357 -16.73365,41.41626 -37.37565,41.41626 -20.642,0 -37.37564,-18.54269 -37.37564,-41.41626 0,-22.87357 16.73364,-41.41626 37.37564,-41.41626 20.642,0 37.37565,18.54269 37.37565,41.41626 z"
             sodipodi:ry="41.416256"
             sodipodi:rx="37.375645"
             sodipodi:cy="-436.30716"
             sodipodi:cx="384.86813"
             id="path4707"
             style="fill:none;stroke:#252525;stroke-width:1.49232662;stroke-miterlimit:4;stroke-opacity:1;stroke-dasharray:none"
             sodipodi:type="arc" />
          <path
             sodipodi:type="arc"
             style="fill:none;stroke:#252525;stroke-width:1.49232662;stroke-miterlimit:4;stroke-opacity:1;stroke-dasharray:none"
             id="path4709"
             sodipodi:cx="384.86813"
             sodipodi:cy="-436.30716"
             sodipodi:rx="37.375645"
             sodipodi:ry="41.416256"
             d="m 422.24378,-436.30716 c 0,22.87357 -16.73365,41.41626 -37.37565,41.41626 -20.642,0 -37.37564,-18.54269 -37.37564,-41.41626 0,-22.87357 16.73364,-41.41626 37.37564,-41.41626 20.642,0 37.37565,18.54269 37.37565,41.41626 z"
             transform="matrix(0.37664302,-0.22086332,0.20295971,0.33379466,419.24213,-606.20232)" />
          <path
             transform="matrix(0.37664302,-0.22086332,0.20295971,0.33379466,456.55619,-606.20232)"
             d="m 422.24378,-436.30716 c 0,22.87357 -16.73365,41.41626 -37.37565,41.41626 -20.642,0 -37.37564,-18.54269 -37.37564,-41.41626 0,-22.87357 16.73364,-41.41626 37.37564,-41.41626 20.642,0 37.37565,18.54269 37.37565,41.41626 z"
             sodipodi:ry="41.416256"
             sodipodi:rx="37.375645"
             sodipodi:cy="-436.30716"
             sodipodi:cx="384.86813"
             id="path4711"
             style="fill:none;stroke:#252525;stroke-width:1.49232662;stroke-miterlimit:4;stroke-opacity:1;stroke-dasharray:none"
             sodipodi:type="arc" />
          <path
             sodipodi:type="arc"
             style="fill:none;stroke:#252525;stroke-width:1.49232662;stroke-miterlimit:4;stroke-opacity:1;stroke-dasharray:none"
             id="path4713"
             sodipodi:cx="384.86813"
             sodipodi:cy="-436.30716"
             sodipodi:rx="37.375645"
             sodipodi:ry="41.416256"
             d="m 422.24378,-436.30716 c 0,22.87357 -16.73365,41.41626 -37.37565,41.41626 -20.642,0 -37.37564,-18.54269 -37.37564,-41.41626 0,-22.87357 16.73364,-41.41626 37.37564,-41.41626 20.642,0 37.37565,18.54269 37.37565,41.41626 z"
             transform="matrix(0.37664302,-0.22086332,0.20295971,0.33379466,493.87025,-606.20232)" />
          <path
             transform="matrix(0.37664302,-0.22086332,0.20295971,0.33379466,344.61401,-569.55822)"
             d="m 422.24378,-436.30716 c 0,22.87357 -16.73365,41.41626 -37.37565,41.41626 -20.642,0 -37.37564,-18.54269 -37.37564,-41.41626 0,-22.87357 16.73364,-41.41626 37.37564,-41.41626 20.642,0 37.37565,18.54269 37.37565,41.41626 z"
             sodipodi:ry="41.416256"
             sodipodi:rx="37.375645"
             sodipodi:cy="-436.30716"
             sodipodi:cx="384.86813"
             id="path4715"
             style="fill:none;stroke:#252525;stroke-width:1.49232662;stroke-miterlimit:4;stroke-opacity:1;stroke-dasharray:none"
             sodipodi:type="arc" />
          <path
             transform="matrix(0.37664302,-0.22086332,0.20295971,0.33379466,493.87025,-569.55822)"
             d="m 422.24378,-436.30716 c 0,22.87357 -16.73365,41.41626 -37.37565,41.41626 -20.642,0 -37.37564,-18.54269 -37.37564,-41.41626 0,-22.87357 16.73364,-41.41626 37.37564,-41.41626 20.642,0 37.37565,18.54269 37.37565,41.41626 z"
             sodipodi:ry="41.416256"
             sodipodi:rx="37.375645"
             sodipodi:cy="-436.30716"
             sodipodi:cx="384.86813"
             id="path4717"
             style="fill:none;stroke:#252525;stroke-width:1.49232662;stroke-miterlimit:4;stroke-opacity:1;stroke-dasharray:none"
             sodipodi:type="arc" />
          <path
             sodipodi:type="arc"
             style="fill:none;stroke:#252525;stroke-width:1.49232662;stroke-miterlimit:4;stroke-opacity:1;stroke-dasharray:none"
             id="path4719"
             sodipodi:cx="384.86813"
             sodipodi:cy="-436.30716"
             sodipodi:rx="37.375645"
             sodipodi:ry="41.416256"
             d="m 422.24378,-436.30716 c 0,22.87357 -16.73365,41.41626 -37.37565,41.41626 -20.642,0 -37.37564,-18.54269 -37.37564,-41.41626 0,-22.87357 16.73364,-41.41626 37.37564,-41.41626 20.642,0 37.37565,18.54269 37.37565,41.41626 z"
             transform="matrix(0.37664302,-0.22086332,0.20295971,0.33379466,344.61401,-532.91412)" />
          <path
             sodipodi:type="arc"
             style="fill:none;stroke:#252525;stroke-width:1.49232662;stroke-miterlimit:4;stroke-opacity:1;stroke-dasharray:none"
             id="path4721"
             sodipodi:cx="384.86813"
             sodipodi:cy="-436.30716"
             sodipodi:rx="37.375645"
             sodipodi:ry="41.416256"
             d="m 422.24378,-436.30716 c 0,22.87357 -16.73365,41.41626 -37.37565,41.41626 -20.642,0 -37.37564,-18.54269 -37.37564,-41.41626 0,-22.87357 16.73364,-41.41626 37.37564,-41.41626 20.642,0 37.37565,18.54269 37.37565,41.41626 z"
             transform="matrix(0.37664302,-0.22086332,0.20295971,0.33379466,493.87025,-532.91412)" />
          <path
             transform="matrix(0.37664302,-0.22086332,0.20295971,0.33379466,344.61401,-496.27002)"
             d="m 422.24378,-436.30716 c 0,22.87357 -16.73365,41.41626 -37.37565,41.41626 -20.642,0 -37.37564,-18.54269 -37.37564,-41.41626 0,-22.87357 16.73364,-41.41626 37.37564,-41.41626 20.642,0 37.37565,18.54269 37.37565,41.41626 z"
             sodipodi:ry="41.416256"
             sodipodi:rx="37.375645"
             sodipodi:cy="-436.30716"
             sodipodi:cx="384.86813"
             id="path4723"
             style="fill:none;stroke:#252525;stroke-width:1.49232662;stroke-miterlimit:4;stroke-opacity:1;stroke-dasharray:none"
             sodipodi:type="arc" />
          <path
             transform="matrix(0.37664302,-0.22086332,0.20295971,0.33379466,493.87025,-496.27002)"
             d="m 422.24378,-436.30716 c 0,22.87357 -16.73365,41.41626 -37.37565,41.41626 -20.642,0 -37.37564,-18.54269 -37.37564,-41.41626 0,-22.87357 16.73364,-41.41626 37.37564,-41.41626 20.642,0 37.37565,18.54269 37.37565,41.41626 z"
             sodipodi:ry="41.416256"
             sodipodi:rx="37.375645"
             sodipodi:cy="-436.30716"
             sodipodi:cx="384.86813"
             id="path4725"
             style="fill:none;stroke:#252525;stroke-width:1.49232662;stroke-miterlimit:4;stroke-opacity:1;stroke-dasharray:none"
             sodipodi:type="arc" />
          <path
             sodipodi:type="arc"
             style="fill:none;stroke:#252525;stroke-width:1.49232662;stroke-miterlimit:4;stroke-opacity:1;stroke-dasharray:none"
             id="path4727"
             sodipodi:cx="384.86813"
             sodipodi:cy="-436.30716"
             sodipodi:rx="37.375645"
             sodipodi:ry="41.416256"
             d="m 422.24378,-436.30716 c 0,22.87357 -16.73365,41.41626 -37.37565,41.41626 -20.642,0 -37.37564,-18.54269 -37.37564,-41.41626 0,-22.87357 16.73364,-41.41626 37.37564,-41.41626 20.642,0 37.37565,18.54269 37.37565,41.41626 z"
             transform="matrix(0.37664302,-0.22086332,0.20295971,0.33379466,344.61401,-459.62592)" />
          <path
             sodipodi:type="arc"
             style="fill:none;stroke:#252525;stroke-width:1.49232662;stroke-miterlimit:4;stroke-opacity:1;stroke-dasharray:none"
             id="path4729"
             sodipodi:cx="384.86813"
             sodipodi:cy="-436.30716"
             sodipodi:rx="37.375645"
             sodipodi:ry="41.416256"
             d="m 422.24378,-436.30716 c 0,22.87357 -16.73365,41.41626 -37.37565,41.41626 -20.642,0 -37.37564,-18.54269 -37.37564,-41.41626 0,-22.87357 16.73364,-41.41626 37.37564,-41.41626 20.642,0 37.37565,18.54269 37.37565,41.41626 z"
             transform="matrix(0.37664302,-0.22086332,0.20295971,0.33379466,493.87025,-459.62592)" />
          <path
             transform="matrix(0.37664302,-0.22086332,0.20295971,0.33379466,344.61401,-422.98182)"
             d="m 422.24378,-436.30716 c 0,22.87357 -16.73365,41.41626 -37.37565,41.41626 -20.642,0 -37.37564,-18.54269 -37.37564,-41.41626 0,-22.87357 16.73364,-41.41626 37.37564,-41.41626 20.642,0 37.37565,18.54269 37.37565,41.41626 z"
             sodipodi:ry="41.416256"
             sodipodi:rx="37.375645"
             sodipodi:cy="-436.30716"
             sodipodi:cx="384.86813"
             id="path4731"
             style="fill:none;stroke:#252525;stroke-width:1.49232662;stroke-miterlimit:4;stroke-opacity:1;stroke-dasharray:none"
             sodipodi:type="arc" />
          <path
             transform="matrix(0.37664302,-0.22086332,0.20295971,0.33379466,493.87025,-422.98182)"
             d="m 422.24378,-436.30716 c 0,22.87357 -16.73365,41.41626 -37.37565,41.41626 -20.642,0 -37.37564,-18.54269 -37.37564,-41.41626 0,-22.87357 16.73364,-41.41626 37.37564,-41.41626 20.642,0 37.37565,18.54269 37.37565,41.41626 z"
             sodipodi:ry="41.416256"
             sodipodi:rx="37.375645"
             sodipodi:cy="-436.30716"
             sodipodi:cx="384.86813"
             id="path4733"
             style="fill:none;stroke:#252525;stroke-width:1.49232662;stroke-miterlimit:4;stroke-opacity:1;stroke-dasharray:none"
             sodipodi:type="arc" />
          <path
             sodipodi:type="arc"
             style="fill:none;stroke:#252525;stroke-width:1.49232662;stroke-miterlimit:4;stroke-opacity:1;stroke-dasharray:none"
             id="path4735"
             sodipodi:cx="384.86813"
             sodipodi:cy="-436.30716"
             sodipodi:rx="37.375645"
             sodipodi:ry="41.416256"
             d="m 422.24378,-436.30716 c 0,22.87357 -16.73365,41.41626 -37.37565,41.41626 -20.642,0 -37.37564,-18.54269 -37.37564,-41.41626 0,-22.87357 16.73364,-41.41626 37.37564,-41.41626 20.642,0 37.37565,18.54269 37.37565,41.41626 z"
             transform="matrix(0.37664302,-0.22086332,0.20295971,0.33379466,307.29995,-398.55242)" />
          <g
             id="g4767"
             style="stroke-width:0.61629254;stroke-miterlimit:4;stroke-dasharray:none"
             inkscape:transform-center-y="80.785227"
             transform="matrix(0.88358878,-0.45985622,0.47682482,0.88358878,406.64087,115.55534)"
             inkscape:transform-center-x="-42.812659">
            <path
               sodipodi:type="arc"
               style="fill:none;stroke:#252525;stroke-width:1.49232662;stroke-miterlimit:4;stroke-opacity:1;stroke-dasharray:none"
               id="path4739"
               sodipodi:cx="384.86813"
               sodipodi:cy="-436.30716"
               sodipodi:rx="37.375645"
               sodipodi:ry="41.416256"
               d="m 422.24378,-436.30716 c 0,22.87357 -16.73365,41.41626 -37.37565,41.41626 -20.642,0 -37.37564,-18.54269 -37.37564,-41.41626 0,-22.87357 16.73364,-41.41626 37.37564,-41.41626 20.642,0 37.37565,18.54269 37.37565,41.41626 z"
               transform="matrix(0.37664302,-0.22086332,0.20295971,0.33379466,419.24213,-557.34352)" />
            <path
               transform="matrix(0.37664302,-0.22086332,0.20295971,0.33379466,419.24213,-520.69942)"
               d="m 422.24378,-436.30716 c 0,22.87357 -16.73365,41.41626 -37.37565,41.41626 -20.642,0 -37.37564,-18.54269 -37.37564,-41.41626 0,-22.87357 16.73364,-41.41626 37.37564,-41.41626 20.642,0 37.37565,18.54269 37.37565,41.41626 z"
               sodipodi:ry="41.416256"
               sodipodi:rx="37.375645"
               sodipodi:cy="-436.30716"
               sodipodi:cx="384.86813"
               id="path4741"
               style="fill:none;stroke:#252525;stroke-width:1.49232662;stroke-miterlimit:4;stroke-opacity:1;stroke-dasharray:none"
               sodipodi:type="arc" />
            <path
               sodipodi:type="arc"
               style="fill:none;stroke:#252525;stroke-width:1.49232662;stroke-miterlimit:4;stroke-opacity:1;stroke-dasharray:none"
               id="path4743"
               sodipodi:cx="384.86813"
               sodipodi:cy="-436.30716"
               sodipodi:rx="37.375645"
               sodipodi:ry="41.416256"
               d="m 422.24378,-436.30716 c 0,22.87357 -16.73365,41.41626 -37.37565,41.41626 -20.642,0 -37.37564,-18.54269 -37.37564,-41.41626 0,-22.87357 16.73364,-41.41626 37.37564,-41.41626 20.642,0 37.37565,18.54269 37.37565,41.41626 z"
               transform="matrix(0.37664302,-0.22086332,0.20295971,0.33379466,419.24213,-484.05532)" />
            <path
               transform="matrix(0.37664302,-0.22086332,0.20295971,0.33379466,419.24213,-447.41122)"
               d="m 422.24378,-436.30716 c 0,22.87357 -16.73365,41.41626 -37.37565,41.41626 -20.642,0 -37.37564,-18.54269 -37.37564,-41.41626 0,-22.87357 16.73364,-41.41626 37.37564,-41.41626 20.642,0 37.37565,18.54269 37.37565,41.41626 z"
               sodipodi:ry="41.416256"
               sodipodi:rx="37.375645"
               sodipodi:cy="-436.30716"
               sodipodi:cx="384.86813"
               id="path4745"
               style="fill:none;stroke:#252525;stroke-width:1.49232662;stroke-miterlimit:4;stroke-opacity:1;stroke-dasharray:none"
               sodipodi:type="arc" />
          </g>
          <rect
             style="fill:none;stroke:#252525;stroke-width:0.61632717;stroke-miterlimit:4;stroke-opacity:1;stroke-dasharray:none"
             id="rect4757"
             width="38.824013"
             height="151.19853"
             x="757.39026"
             y="-521.30939"
             rx="4.3899422"
             ry="4.3455162"
             inkscape:transform-center-y="80.785269"
             transform="matrix(0.88705646,-0.46166095,0.47490744,0.88003575,0,0)"
             inkscape:transform-center-x="-42.812658" />
          <g
             id="g3052"
             transform="translate(-1.3925014e-5,4.935502e-7)">
            <g
               style="stroke-width:0.61629254;stroke-miterlimit:4;stroke-dasharray:none"
               id="g4761">
              <path
                 sodipodi:type="arc"
                 style="fill:none;stroke:#252525;stroke-width:1.49232662;stroke-miterlimit:4;stroke-opacity:1;stroke-dasharray:none"
                 id="path4747"
                 sodipodi:cx="384.86813"
                 sodipodi:cy="-436.30716"
                 sodipodi:rx="37.375645"
                 sodipodi:ry="41.416256"
                 d="m 422.24378,-436.30716 c 0,22.87357 -16.73365,41.41626 -37.37565,41.41626 -20.642,0 -37.37564,-18.54269 -37.37564,-41.41626 0,-22.87357 16.73364,-41.41626 37.37564,-41.41626 20.642,0 37.37565,18.54269 37.37565,41.41626 z"
                 transform="matrix(0.37664302,-0.22086332,0.20295971,0.33379466,282.42391,-569.55822)" />
              <path
                 transform="matrix(0.37664302,-0.22086332,0.20295971,0.33379466,282.42391,-532.91412)"
                 d="m 422.24378,-436.30716 c 0,22.87357 -16.73365,41.41626 -37.37565,41.41626 -20.642,0 -37.37564,-18.54269 -37.37564,-41.41626 0,-22.87357 16.73364,-41.41626 37.37564,-41.41626 20.642,0 37.37565,18.54269 37.37565,41.41626 z"
                 sodipodi:ry="41.416256"
                 sodipodi:rx="37.375645"
                 sodipodi:cy="-436.30716"
                 sodipodi:cx="384.86813"
                 id="path4749"
                 style="fill:none;stroke:#252525;stroke-width:1.49232662;stroke-miterlimit:4;stroke-opacity:1;stroke-dasharray:none"
                 sodipodi:type="arc" />
              <path
                 transform="matrix(0.37664302,-0.22086332,0.20295971,0.33379466,245.10985,-569.55822)"
                 d="m 422.24378,-436.30716 c 0,22.87357 -16.73365,41.41626 -37.37565,41.41626 -20.642,0 -37.37564,-18.54269 -37.37564,-41.41626 0,-22.87357 16.73364,-41.41626 37.37564,-41.41626 20.642,0 37.37565,18.54269 37.37565,41.41626 z"
                 sodipodi:ry="41.416256"
                 sodipodi:rx="37.375645"
                 sodipodi:cy="-436.30716"
                 sodipodi:cx="384.86813"
                 id="path4751"
                 style="fill:none;stroke:#252525;stroke-width:1.49232662;stroke-miterlimit:4;stroke-opacity:1;stroke-dasharray:none"
                 sodipodi:type="arc" />
              <path
                 sodipodi:type="arc"
                 style="fill:none;stroke:#252525;stroke-width:1.49232662;stroke-miterlimit:4;stroke-opacity:1;stroke-dasharray:none"
                 id="path4753"
                 sodipodi:cx="384.86813"
                 sodipodi:cy="-436.30716"
                 sodipodi:rx="37.375645"
                 sodipodi:ry="41.416256"
                 d="m 422.24378,-436.30716 c 0,22.87357 -16.73365,41.41626 -37.37565,41.41626 -20.642,0 -37.37564,-18.54269 -37.37564,-41.41626 0,-22.87357 16.73364,-41.41626 37.37564,-41.41626 20.642,0 37.37565,18.54269 37.37565,41.41626 z"
                 transform="matrix(0.37664302,-0.22086332,0.20295971,0.33379466,245.10985,-532.91412)" />
            </g>
            <rect
               ry="2.6432865"
               rx="2.6574805"
               y="-821.73865"
               x="280.30978"
               height="79.724411"
               width="79.724411"
               id="rect4759"
               style="fill:none;stroke:#252525;stroke-width:0.61629254;stroke-miterlimit:4;stroke-opacity:1;stroke-dasharray:none" />
          </g>
          <path
             transform="matrix(0.27540775,-0.161499,0.14840758,0.24407631,359.77475,-668.19452)"
             d="m 422.24378,-436.30716 c 0,22.87357 -16.73365,41.41626 -37.37565,41.41626 -20.642,0 -37.37564,-18.54269 -37.37564,-41.41626 0,-22.87357 16.73364,-41.41626 37.37564,-41.41626 20.642,0 37.37565,18.54269 37.37565,41.41626 z"
             sodipodi:ry="41.416256"
             sodipodi:rx="37.375645"
             sodipodi:cy="-436.30716"
             sodipodi:cx="384.86813"
             id="path4775"
             style="fill:none;stroke:#252525;stroke-width:2.04088068;stroke-miterlimit:4;stroke-opacity:1;stroke-dasharray:none"
             sodipodi:type="arc" />
          <rect
             style="fill:none;stroke:#252525;stroke-width:0.61629254;stroke-miterlimit:4;stroke-opacity:1;stroke-dasharray:none"
             id="rect4779"
             width="126.82334"
             height="7.0866141"
             x="415.10339"
             y="-840.38586" />
          <rect
             style="fill:none;stroke:#252525;stroke-width:0.61629254;stroke-miterlimit:4;stroke-opacity:1;stroke-dasharray:none"
             id="rect4781"
             width="7.0866146"
             height="158.24393"
             x="397.47583"
             y="-823.24878" />
          <rect
             y="-823.24878"
             x="546.73206"
             height="158.24393"
             width="7.0866146"
             id="rect4787"
             style="fill:none;stroke:#252525;stroke-width:0.61629254;stroke-miterlimit:4;stroke-opacity:1;stroke-dasharray:none" />
          <rect
             y="667.07135"
             x="328.88281"
             height="17.943624"
             width="6.9978948"
             id="rect4789"
             style="fill:none;stroke:#252525;stroke-width:0.61633509;stroke-miterlimit:4;stroke-opacity:1;stroke-dasharray:none"
             inkscape:transform-center-y="18.229275"
             transform="matrix(-0.55541012,-0.83157658,0.84069069,-0.54151562,0,0)"
             inkscape:transform-center-x="27.792436" />
          <rect
             inkscape:transform-center-x="-25.463615"
             transform="matrix(0.64952538,-0.76033991,-0.77180636,-0.63585764,0,0)"
             inkscape:transform-center-y="21.361898"
             style="fill:none;stroke:#252525;stroke-width:0.61634159;stroke-miterlimit:4;stroke-opacity:1;stroke-dasharray:none"
             id="rect4791"
             width="7.0122161"
             height="21.437008"
             x="850.99634"
             y="-25.087618" />
          <rect
             y="-803.7417"
             x="415.10339"
             height="7.0866141"
             width="35.433071"
             id="rect3077"
             style="fill:none;stroke:#252525;stroke-width:0.61629254;stroke-miterlimit:4;stroke-opacity:1;stroke-dasharray:none" />
          <rect
             style="fill:none;stroke:#252525;stroke-width:0.61632717;stroke-miterlimit:4;stroke-opacity:1;stroke-dasharray:none"
             id="rect3080"
             width="7.0589118"
             height="123.30685"
             x="773.27283"
             y="-511.77753"
             transform="matrix(0.88705646,-0.46166095,0.47490744,0.88003575,0,0)" />
        </g>
      </g>
      <use
         height="1417.3228"
         width="1417.3228"
         transform="translate(848.61662,-280.21112)"
         id="use3525"
         xlink:href="#g3496"
         inkscape:tiled-clone-of="#g3496"
         y="0"
         x="0" />
      <use
         height="1417.3228"
         width="1417.3228"
         id="use3527"
         transform="matrix(0.5,0.8660254,-0.8660254,0.5,1301.4762,158.65213)"
         xlink:href="#g3496"
         inkscape:tiled-clone-of="#g3496"
         y="0"
         x="0" />
      <use
         height="1417.3228"
         width="1417.3228"
         id="use3529"
         transform="matrix(-0.5,0.8660254,-0.8660254,-0.5,1147.841,770.27196)"
         xlink:href="#g3496"
         inkscape:tiled-clone-of="#g3496"
         y="0"
         x="0" />
      <use
         height="1417.3228"
         width="1417.3228"
         id="use3531"
         transform="matrix(-1,0,0,-1,541.34364,943.02863)"
         xlink:href="#g3496"
         inkscape:tiled-clone-of="#g3496"
         y="0"
         x="0" />
      <use
         height="1417.3228"
         width="1417.3228"
         id="use3533"
         transform="matrix(-0.5,-0.8660254,0.8660254,-0.5,88.483134,504.16668)"
         xlink:href="#g3496"
         inkscape:tiled-clone-of="#g3496"
         y="0"
         x="0" />
      <use
         height="1417.3228"
         width="1417.3228"
         id="use3535"
         transform="matrix(0.5,-0.8660254,0.8660254,0.5,242.11984,-107.45446)"
         xlink:href="#g3496"
         inkscape:tiled-clone-of="#g3496"
         y="0"
         x="0" />
    </g>
  </g>
  <g
     inkscape:groupmode="layer"
     id="layer2"
     inkscape:label="home" />
</svg>
